{
  "uid" : "135df6e8b80dc5d",
  "name" : "test_get[all_api1]",
  "fullName" : "testcase.test_get.Test#test_get",
  "historyId" : "dae22a9df67c0731db010cf09839d816",
  "time" : {
    "start" : 1625811571480,
    "stop" : 1625811571970,
    "duration" : 490
  },
  "status" : "passed",
  "flaky" : false,
  "newFailed" : false,
  "beforeStages" : [ ],
  "testStage" : {
    "status" : "passed",
    "steps" : [ ],
    "attachments" : [ {
      "uid" : "716781f91e29add4",
      "name" : "log",
      "source" : "716781f91e29add4.txt",
      "type" : "text/plain",
      "size" : 2427
    }, {
      "uid" : "3cfb5d32ab68bb45",
      "name" : "stdout",
      "source" : "3cfb5d32ab68bb45.txt",
      "type" : "text/plain",
      "size" : 4
    } ],
    "parameters" : [ ],
    "attachmentsCount" : 2,
    "shouldDisplayMessage" : false,
    "hasContent" : true,
    "stepsCount" : 0
  },
  "afterStages" : [ ],
  "labels" : [ {
    "name" : "parentSuite",
    "value" : "testcase"
  }, {
    "name" : "suite",
    "value" : "test_get"
  }, {
    "name" : "subSuite",
    "value" : "Test"
  }, {
    "name" : "host",
    "value" : "DESKTOP-S2LA16V"
  }, {
    "name" : "thread",
    "value" : "32348-MainThread"
  }, {
    "name" : "framework",
    "value" : "pytest"
  }, {
    "name" : "language",
    "value" : "cpython3"
  }, {
    "name" : "package",
    "value" : "testcase.test_get"
  }, {
    "name" : "resultFormat",
    "value" : "allure2"
  } ],
  "parameters" : [ {
    "name" : "all_api",
    "value" : "{'case_id': 2.0, 'url': 'https://reqres.in/api/users?', 'params': 'page=2', 'yuqi': '{\"page\":2,\"per_page\":6,\"total\":12,\"total_pages\":2,\"data\":[{\"id\":7,\"email\":\"michael.lawson@reqres.in\",\"first_name\":\"Michael\",\"last_name\":\"Lawson\",\"avatar\":\"https://reqres.in/img/faces/7-image.jpg\"},{\"id\":8,\"email\":\"lindsay.ferguson@reqres.in\",\"first_name\":\"Lindsay\",\"last_name\":\"Ferguson\",\"avatar\":\"https://reqres.in/img/faces/8-image.jpg\"},{\"id\":9,\"email\":\"tobias.funke@reqres.in\",\"first_name\":\"Tobias\",\"last_name\":\"Funke\",\"avatar\":\"https://reqres.in/img/faces/9-image.jpg\"},{\"id\":10,\"email\":\"byron.fields@reqres.in\",\"first_name\":\"Byron\",\"last_name\":\"Fields\",\"avatar\":\"https://reqres.in/img/faces/10-image.jpg\"},{\"id\":11,\"email\":\"george.edwards@reqres.in\",\"first_name\":\"George\",\"last_name\":\"Edwards\",\"avatar\":\"https://reqres.in/img/faces/11-image.jpg\"},{\"id\":12,\"email\":\"rachel.howell@reqres.in\",\"first_name\":\"Rachel\",\"last_name\":\"Howell\",\"avatar\":\"https://reqres.in/img/faces/12-image.jpg\"}],\"support\":{\"url\":\"https://reqres.in/#support-heading\",\"text\":\"To keep ReqRes free, contributions towards server costs are appreciated!\"}}', '实际返回结果': '{\"page\":2,\"per_page\":6,\"total\":12,\"total_pages\":2,\"data\":[{\"id\":7,\"email\":\"michael.lawson@reqres.in\",\"first_name\":\"Michael\",\"last_name\":\"Lawson\",\"avatar\":\"https://reqres.in/img/faces/7-image.jpg\"},{\"id\":8,\"email\":\"lindsay.ferguson@reqres.in\",\"first_name\":\"Lindsay\",\"last_name\":\"Ferguson\",\"avatar\":\"https://reqres.in/img/faces/8-image.jpg\"},{\"id\":9,\"email\":\"tobias.funke@reqres.in\",\"first_name\":\"Tobias\",\"last_name\":\"Funke\",\"avatar\":\"https://reqres.in/img/faces/9-image.jpg\"},{\"id\":10,\"email\":\"byron.fields@reqres.in\",\"first_name\":\"Byron\",\"last_name\":\"Fields\",\"avatar\":\"https://reqres.in/img/faces/10-image.jpg\"},{\"id\":11,\"email\":\"george.edwards@reqres.in\",\"first_name\":\"George\",\"last_name\":\"Edwards\",\"avatar\":\"https://reqres.in/img/faces/11-image.jpg\"},{\"id\":12,\"email\":\"rachel.howell@reqres.in\",\"first_name\":\"Rachel\",\"last_name\":\"Howell\",\"avatar\":\"https://reqres.in/img/faces/12-image.jpg\"}],\"support\":{\"url\":\"https://reqres.in/#support-heading\",\"text\":\"To keep ReqRes free, contributions towards server costs are appreciated!\"}}', '校验结果': 'Pass'}"
  } ],
  "links" : [ ],
  "hidden" : false,
  "retry" : false,
  "extra" : {
    "severity" : "normal",
    "retries" : [ ],
    "categories" : [ ],
    "tags" : [ ]
  },
  "source" : "135df6e8b80dc5d.json",
  "parameterValues" : [ "{'case_id': 2.0, 'url': 'https://reqres.in/api/users?', 'params': 'page=2', 'yuqi': '{\"page\":2,\"per_page\":6,\"total\":12,\"total_pages\":2,\"data\":[{\"id\":7,\"email\":\"michael.lawson@reqres.in\",\"first_name\":\"Michael\",\"last_name\":\"Lawson\",\"avatar\":\"https://reqres.in/img/faces/7-image.jpg\"},{\"id\":8,\"email\":\"lindsay.ferguson@reqres.in\",\"first_name\":\"Lindsay\",\"last_name\":\"Ferguson\",\"avatar\":\"https://reqres.in/img/faces/8-image.jpg\"},{\"id\":9,\"email\":\"tobias.funke@reqres.in\",\"first_name\":\"Tobias\",\"last_name\":\"Funke\",\"avatar\":\"https://reqres.in/img/faces/9-image.jpg\"},{\"id\":10,\"email\":\"byron.fields@reqres.in\",\"first_name\":\"Byron\",\"last_name\":\"Fields\",\"avatar\":\"https://reqres.in/img/faces/10-image.jpg\"},{\"id\":11,\"email\":\"george.edwards@reqres.in\",\"first_name\":\"George\",\"last_name\":\"Edwards\",\"avatar\":\"https://reqres.in/img/faces/11-image.jpg\"},{\"id\":12,\"email\":\"rachel.howell@reqres.in\",\"first_name\":\"Rachel\",\"last_name\":\"Howell\",\"avatar\":\"https://reqres.in/img/faces/12-image.jpg\"}],\"support\":{\"url\":\"https://reqres.in/#support-heading\",\"text\":\"To keep ReqRes free, contributions towards server costs are appreciated!\"}}', '实际返回结果': '{\"page\":2,\"per_page\":6,\"total\":12,\"total_pages\":2,\"data\":[{\"id\":7,\"email\":\"michael.lawson@reqres.in\",\"first_name\":\"Michael\",\"last_name\":\"Lawson\",\"avatar\":\"https://reqres.in/img/faces/7-image.jpg\"},{\"id\":8,\"email\":\"lindsay.ferguson@reqres.in\",\"first_name\":\"Lindsay\",\"last_name\":\"Ferguson\",\"avatar\":\"https://reqres.in/img/faces/8-image.jpg\"},{\"id\":9,\"email\":\"tobias.funke@reqres.in\",\"first_name\":\"Tobias\",\"last_name\":\"Funke\",\"avatar\":\"https://reqres.in/img/faces/9-image.jpg\"},{\"id\":10,\"email\":\"byron.fields@reqres.in\",\"first_name\":\"Byron\",\"last_name\":\"Fields\",\"avatar\":\"https://reqres.in/img/faces/10-image.jpg\"},{\"id\":11,\"email\":\"george.edwards@reqres.in\",\"first_name\":\"George\",\"last_name\":\"Edwards\",\"avatar\":\"https://reqres.in/img/faces/11-image.jpg\"},{\"id\":12,\"email\":\"rachel.howell@reqres.in\",\"first_name\":\"Rachel\",\"last_name\":\"Howell\",\"avatar\":\"https://reqres.in/img/faces/12-image.jpg\"}],\"support\":{\"url\":\"https://reqres.in/#support-heading\",\"text\":\"To keep ReqRes free, contributions towards server costs are appreciated!\"}}', '校验结果': 'Pass'}" ]
}