2021-07-08 16:49:03,818 - wrLog.py[line:31] - INFO: 接口调用开始:请求的url是：https://reqres.in/api/users?，参数是：page=1,拼接后的url地址是：https://reqres.in/api/users?page=1
2021-07-08 16:49:04,304 - wrLog.py[line:31] - INFO: 接口实际返回结果：{"page":1,"per_page":6,"total":12,"total_pages":2,"data":[{"id":1,"email":"george.bluth@reqres.in","first_name":"George","last_name":"Bluth","avatar":"https://reqres.in/img/faces/1-image.jpg"},{"id":2,"email":"janet.weaver@reqres.in","first_name":"Janet","last_name":"Weaver","avatar":"https://reqres.in/img/faces/2-image.jpg"},{"id":3,"email":"emma.wong@reqres.in","first_name":"Emma","last_name":"Wong","avatar":"https://reqres.in/img/faces/3-image.jpg"},{"id":4,"email":"eve.holt@reqres.in","first_name":"Eve","last_name":"Holt","avatar":"https://reqres.in/img/faces/4-image.jpg"},{"id":5,"email":"charles.morris@reqres.in","first_name":"Charles","last_name":"Morris","avatar":"https://reqres.in/img/faces/5-image.jpg"},{"id":6,"email":"tracey.ramos@reqres.in","first_name":"Tracey","last_name":"Ramos","avatar":"https://reqres.in/img/faces/6-image.jpg"}],"support":{"url":"https://reqres.in/#support-heading","text":"To keep ReqRes free, contributions towards server costs are appreciated!"}}
2021-07-08 16:49:04,305 - wrLog.py[line:31] - INFO: 接口的预期结果：{"page":1,"per_page":6,"total":12,"total_pages":2,"data":[{"id":1,"email":"george.bluth@reqres.in","first_name":"George","last_name":"Bluth","avatar":"https://reqres.in/img/faces/1-image.jpg"},{"id":2,"email":"janet.weaver@reqres.in","first_name":"Janet","last_name":"Weaver","avatar":"https://reqres.in/img/faces/2-image.jpg"},{"id":3,"email":"emma.wong@reqres.in","first_name":"Emma","last_name":"Wong","avatar":"https://reqres.in/img/faces/3-image.jpg"},{"id":4,"email":"eve.holt@reqres.in","first_name":"Eve","last_name":"Holt","avatar":"https://reqres.in/img/faces/4-image.jpg"},{"id":5,"email":"charles.morris@reqres.in","first_name":"Charles","last_name":"Morris","avatar":"https://reqres.in/img/faces/5-image.jpg"},{"id":6,"email":"tracey.ramos@reqres.in","first_name":"Tracey","last_name":"Ramos","avatar":"https://reqres.in/img/faces/6-image.jpg"}],"support":{"url":"https://reqres.in/#support-heading","text":"To keep ReqRes free, contributions towards server costs are appreciated!"}}
2021-07-08 16:49:04,306 - wrLog.py[line:31] - INFO: 实际返回结果和预期结果校验为：True
2021-07-08 16:49:04,336 - wrLog.py[line:31] - INFO: 接口调用开始:请求的url是：https://reqres.in/api/users?，参数是：page=2,拼接后的url地址是：https://reqres.in/api/users?page=2
2021-07-08 16:49:04,810 - wrLog.py[line:31] - INFO: 接口实际返回结果：{"page":2,"per_page":6,"total":12,"total_pages":2,"data":[{"id":7,"email":"michael.lawson@reqres.in","first_name":"Michael","last_name":"Lawson","avatar":"https://reqres.in/img/faces/7-image.jpg"},{"id":8,"email":"lindsay.ferguson@reqres.in","first_name":"Lindsay","last_name":"Ferguson","avatar":"https://reqres.in/img/faces/8-image.jpg"},{"id":9,"email":"tobias.funke@reqres.in","first_name":"Tobias","last_name":"Funke","avatar":"https://reqres.in/img/faces/9-image.jpg"},{"id":10,"email":"byron.fields@reqres.in","first_name":"Byron","last_name":"Fields","avatar":"https://reqres.in/img/faces/10-image.jpg"},{"id":11,"email":"george.edwards@reqres.in","first_name":"George","last_name":"Edwards","avatar":"https://reqres.in/img/faces/11-image.jpg"},{"id":12,"email":"rachel.howell@reqres.in","first_name":"Rachel","last_name":"Howell","avatar":"https://reqres.in/img/faces/12-image.jpg"}],"support":{"url":"https://reqres.in/#support-heading","text":"To keep ReqRes free, contributions towards server costs are appreciated!"}}
2021-07-08 16:49:04,811 - wrLog.py[line:31] - INFO: 接口的预期结果：{"page":2,"per_page":6,"total":12,"total_pages":2,"data":[{"id":7,"email":"michael.lawson@reqres.in","first_name":"Michael","last_name":"Lawson","avatar":"https://reqres.in/img/faces/7-image.jpg"},{"id":8,"email":"lindsay.ferguson@reqres.in","first_name":"Lindsay","last_name":"Ferguson","avatar":"https://reqres.in/img/faces/8-image.jpg"},{"id":9,"email":"tobias.funke@reqres.in","first_name":"Tobias","last_name":"Funke","avatar":"https://reqres.in/img/faces/9-image.jpg"},{"id":10,"email":"byron.fields@reqres.in","first_name":"Byron","last_name":"Fields","avatar":"https://reqres.in/img/faces/10-image.jpg"},{"id":11,"email":"george.edwards@reqres.in","first_name":"George","last_name":"Edwards","avatar":"https://reqres.in/img/faces/11-image.jpg"},{"id":12,"email":"rachel.howell@reqres.in","first_name":"Rachel","last_name":"Howell","avatar":"https://reqres.in/img/faces/12-image.jpg"}],"support":{"url":"https://reqres.in/#support-heading","text":"To keep ReqRes free, contributions towards server costs are appreciated!"}}
2021-07-08 16:49:04,811 - wrLog.py[line:31] - INFO: 实际返回结果和预期结果校验为：True
2021-07-08 16:52:00,366 - wrLog.py[line:31] - INFO: 接口调用开始:请求的url是：https://reqres.in/api/users?，参数是：page=1,拼接后的url地址是：https://reqres.in/api/users?page=1
2021-07-08 16:52:01,158 - wrLog.py[line:31] - INFO: 接口实际返回结果：{"page":1,"per_page":6,"total":12,"total_pages":2,"data":[{"id":1,"email":"george.bluth@reqres.in","first_name":"George","last_name":"Bluth","avatar":"https://reqres.in/img/faces/1-image.jpg"},{"id":2,"email":"janet.weaver@reqres.in","first_name":"Janet","last_name":"Weaver","avatar":"https://reqres.in/img/faces/2-image.jpg"},{"id":3,"email":"emma.wong@reqres.in","first_name":"Emma","last_name":"Wong","avatar":"https://reqres.in/img/faces/3-image.jpg"},{"id":4,"email":"eve.holt@reqres.in","first_name":"Eve","last_name":"Holt","avatar":"https://reqres.in/img/faces/4-image.jpg"},{"id":5,"email":"charles.morris@reqres.in","first_name":"Charles","last_name":"Morris","avatar":"https://reqres.in/img/faces/5-image.jpg"},{"id":6,"email":"tracey.ramos@reqres.in","first_name":"Tracey","last_name":"Ramos","avatar":"https://reqres.in/img/faces/6-image.jpg"}],"support":{"url":"https://reqres.in/#support-heading","text":"To keep ReqRes free, contributions towards server costs are appreciated!"}}
2021-07-08 16:52:01,159 - wrLog.py[line:31] - INFO: 接口的预期结果：{"page":1,"per_page":6,"total":12,"total_pages":2,"data":[{"id":1,"email":"george.bluth@reqres.in","first_name":"George","last_name":"Bluth","avatar":"https://reqres.in/img/faces/1-image.jpg"},{"id":2,"email":"janet.weaver@reqres.in","first_name":"Janet","last_name":"Weaver","avatar":"https://reqres.in/img/faces/2-image.jpg"},{"id":3,"email":"emma.wong@reqres.in","first_name":"Emma","last_name":"Wong","avatar":"https://reqres.in/img/faces/3-image.jpg"},{"id":4,"email":"eve.holt@reqres.in","first_name":"Eve","last_name":"Holt","avatar":"https://reqres.in/img/faces/4-image.jpg"},{"id":5,"email":"charles.morris@reqres.in","first_name":"Charles","last_name":"Morris","avatar":"https://reqres.in/img/faces/5-image.jpg"},{"id":6,"email":"tracey.ramos@reqres.in","first_name":"Tracey","last_name":"Ramos","avatar":"https://reqres.in/img/faces/6-image.jpg"}],"support":{"url":"https://reqres.in/#support-heading","text":"To keep ReqRes free, contributions towards server costs are appreciated!"}}
2021-07-08 16:52:01,160 - wrLog.py[line:31] - INFO: 实际返回结果和预期结果校验为：True
2021-07-08 16:52:01,188 - wrLog.py[line:31] - INFO: 接口调用开始:请求的url是：https://reqres.in/api/users?，参数是：page=2,拼接后的url地址是：https://reqres.in/api/users?page=2
2021-07-08 16:52:01,634 - wrLog.py[line:31] - INFO: 接口实际返回结果：{"page":2,"per_page":6,"total":12,"total_pages":2,"data":[{"id":7,"email":"michael.lawson@reqres.in","first_name":"Michael","last_name":"Lawson","avatar":"https://reqres.in/img/faces/7-image.jpg"},{"id":8,"email":"lindsay.ferguson@reqres.in","first_name":"Lindsay","last_name":"Ferguson","avatar":"https://reqres.in/img/faces/8-image.jpg"},{"id":9,"email":"tobias.funke@reqres.in","first_name":"Tobias","last_name":"Funke","avatar":"https://reqres.in/img/faces/9-image.jpg"},{"id":10,"email":"byron.fields@reqres.in","first_name":"Byron","last_name":"Fields","avatar":"https://reqres.in/img/faces/10-image.jpg"},{"id":11,"email":"george.edwards@reqres.in","first_name":"George","last_name":"Edwards","avatar":"https://reqres.in/img/faces/11-image.jpg"},{"id":12,"email":"rachel.howell@reqres.in","first_name":"Rachel","last_name":"Howell","avatar":"https://reqres.in/img/faces/12-image.jpg"}],"support":{"url":"https://reqres.in/#support-heading","text":"To keep ReqRes free, contributions towards server costs are appreciated!"}}
2021-07-08 16:52:01,635 - wrLog.py[line:31] - INFO: 接口的预期结果：{"page":2,"per_page":6,"total":12,"total_pages":2,"data":[{"id":7,"email":"michael.lawson@reqres.in","first_name":"Michael","last_name":"Lawson","avatar":"https://reqres.in/img/faces/7-image.jpg"},{"id":8,"email":"lindsay.ferguson@reqres.in","first_name":"Lindsay","last_name":"Ferguson","avatar":"https://reqres.in/img/faces/8-image.jpg"},{"id":9,"email":"tobias.funke@reqres.in","first_name":"Tobias","last_name":"Funke","avatar":"https://reqres.in/img/faces/9-image.jpg"},{"id":10,"email":"byron.fields@reqres.in","first_name":"Byron","last_name":"Fields","avatar":"https://reqres.in/img/faces/10-image.jpg"},{"id":11,"email":"george.edwards@reqres.in","first_name":"George","last_name":"Edwards","avatar":"https://reqres.in/img/faces/11-image.jpg"},{"id":12,"email":"rachel.howell@reqres.in","first_name":"Rachel","last_name":"Howell","avatar":"https://reqres.in/img/faces/12-image.jpg"}],"support":{"url":"https://reqres.in/#support-heading","text":"To keep ReqRes free, contributions towards server costs are appreciated!"}}
2021-07-08 16:52:01,636 - wrLog.py[line:31] - INFO: 实际返回结果和预期结果校验为：True
2021-07-08 16:52:01,751 - wrLog.py[line:31] - INFO: 接口调用开始:请求的url是：，参数是：,拼接后的url地址是：
2021-07-08 16:52:01,791 - wrLog.py[line:31] - INFO: 接口调用开始:请求的url是：，参数是：,拼接后的url地址是：
2021-07-08 16:52:01,816 - wrLog.py[line:31] - INFO: 接口调用开始:请求的url是：，参数是：,拼接后的url地址是：
2021-07-08 16:52:01,843 - wrLog.py[line:31] - INFO: 接口调用开始:请求的url是：，参数是：,拼接后的url地址是：
2021-07-08 16:52:01,868 - wrLog.py[line:31] - INFO: 接口调用开始:请求的url是：，参数是：,拼接后的url地址是：
2021-07-08 16:52:01,895 - wrLog.py[line:31] - INFO: 接口调用开始:请求的url是：，参数是：,拼接后的url地址是：
2021-07-08 16:52:01,932 - wrLog.py[line:31] - INFO: 接口调用开始:请求的url是：，参数是：,拼接后的url地址是：
2021-07-08 16:52:01,957 - wrLog.py[line:31] - INFO: 接口调用开始:请求的url是：，参数是：,拼接后的url地址是：
2021-07-08 16:52:01,983 - wrLog.py[line:31] - INFO: 接口调用开始:请求的url是：，参数是：,拼接后的url地址是：
2021-07-08 16:52:02,008 - wrLog.py[line:31] - INFO: 接口调用开始:请求的url是：，参数是：,拼接后的url地址是：
2021-07-08 16:52:02,034 - wrLog.py[line:31] - INFO: 接口调用开始:请求的url是：，参数是：,拼接后的url地址是：
2021-07-08 16:52:02,059 - wrLog.py[line:31] - INFO: 接口调用开始:请求的url是：，参数是：,拼接后的url地址是：
2021-07-08 16:52:02,085 - wrLog.py[line:31] - INFO: 接口调用开始:请求的url是：，参数是：,拼接后的url地址是：
2021-07-08 16:52:02,112 - wrLog.py[line:31] - INFO: 接口调用开始:请求的url是：，参数是：,拼接后的url地址是：
2021-07-08 16:52:02,151 - wrLog.py[line:31] - INFO: 接口调用开始:请求的url是：，参数是：,拼接后的url地址是：
2021-07-08 16:52:02,176 - wrLog.py[line:31] - INFO: 接口调用开始:请求的url是：，参数是：,拼接后的url地址是：
2021-07-08 16:52:02,203 - wrLog.py[line:31] - INFO: 接口调用开始:请求的url是：，参数是：,拼接后的url地址是：
2021-07-08 16:52:02,229 - wrLog.py[line:31] - INFO: 接口调用开始:请求的url是：，参数是：,拼接后的url地址是：
2021-07-08 16:52:02,255 - wrLog.py[line:31] - INFO: 接口调用开始:请求的url是：，参数是：,拼接后的url地址是：
2021-07-08 16:52:02,281 - wrLog.py[line:31] - INFO: 接口调用开始:请求的url是：，参数是：,拼接后的url地址是：
2021-07-08 16:52:02,308 - wrLog.py[line:31] - INFO: 接口调用开始:请求的url是：，参数是：,拼接后的url地址是：
2021-07-08 16:52:02,333 - wrLog.py[line:31] - INFO: 接口调用开始:请求的url是：，参数是：,拼接后的url地址是：
2021-07-08 16:52:02,358 - wrLog.py[line:31] - INFO: 接口调用开始:请求的url是：，参数是：,拼接后的url地址是：
2021-07-08 16:52:02,395 - wrLog.py[line:31] - INFO: 接口调用开始:请求的url是：，参数是：,拼接后的url地址是：
2021-07-08 16:52:02,422 - wrLog.py[line:31] - INFO: 接口调用开始:请求的url是：，参数是：,拼接后的url地址是：
2021-07-08 16:52:02,447 - wrLog.py[line:31] - INFO: 接口调用开始:请求的url是：，参数是：,拼接后的url地址是：
2021-07-08 16:52:02,473 - wrLog.py[line:31] - INFO: 接口调用开始:请求的url是：，参数是：,拼接后的url地址是：
2021-07-08 16:52:02,500 - wrLog.py[line:31] - INFO: 接口调用开始:请求的url是：，参数是：,拼接后的url地址是：
2021-07-08 16:52:02,527 - wrLog.py[line:31] - INFO: 接口调用开始:请求的url是：，参数是：,拼接后的url地址是：
2021-07-08 16:52:02,556 - wrLog.py[line:31] - INFO: 接口调用开始:请求的url是：，参数是：,拼接后的url地址是：
2021-07-08 16:52:02,583 - wrLog.py[line:31] - INFO: 接口调用开始:请求的url是：，参数是：,拼接后的url地址是：
2021-07-08 16:52:02,621 - wrLog.py[line:31] - INFO: 接口调用开始:请求的url是：，参数是：,拼接后的url地址是：
2021-07-08 16:52:02,647 - wrLog.py[line:31] - INFO: 接口调用开始:请求的url是：，参数是：,拼接后的url地址是：
2021-07-08 16:52:02,673 - wrLog.py[line:31] - INFO: 接口调用开始:请求的url是：，参数是：,拼接后的url地址是：
2021-07-08 16:52:02,700 - wrLog.py[line:31] - INFO: 接口调用开始:请求的url是：，参数是：,拼接后的url地址是：
2021-07-08 16:52:02,727 - wrLog.py[line:31] - INFO: 接口调用开始:请求的url是：，参数是：,拼接后的url地址是：
2021-07-08 16:52:02,751 - wrLog.py[line:31] - INFO: 接口调用开始:请求的url是：，参数是：,拼接后的url地址是：
2021-07-08 16:52:02,776 - wrLog.py[line:31] - INFO: 接口调用开始:请求的url是：，参数是：,拼接后的url地址是：
2021-07-08 16:52:02,802 - wrLog.py[line:31] - INFO: 接口调用开始:请求的url是：，参数是：,拼接后的url地址是：
2021-07-08 16:52:02,839 - wrLog.py[line:31] - INFO: 接口调用开始:请求的url是：，参数是：,拼接后的url地址是：
2021-07-08 16:52:02,865 - wrLog.py[line:31] - INFO: 接口调用开始:请求的url是：，参数是：,拼接后的url地址是：
2021-07-08 16:52:02,891 - wrLog.py[line:31] - INFO: 接口调用开始:请求的url是：，参数是：,拼接后的url地址是：
2021-07-08 16:52:02,918 - wrLog.py[line:31] - INFO: 接口调用开始:请求的url是：，参数是：,拼接后的url地址是：
2021-07-08 16:52:02,944 - wrLog.py[line:31] - INFO: 接口调用开始:请求的url是：，参数是：,拼接后的url地址是：
2021-07-08 16:52:02,969 - wrLog.py[line:31] - INFO: 接口调用开始:请求的url是：，参数是：,拼接后的url地址是：
2021-07-08 16:52:02,996 - wrLog.py[line:31] - INFO: 接口调用开始:请求的url是：，参数是：,拼接后的url地址是：
2021-07-08 16:52:03,021 - wrLog.py[line:31] - INFO: 接口调用开始:请求的url是：，参数是：,拼接后的url地址是：
2021-07-08 16:52:03,060 - wrLog.py[line:31] - INFO: 接口调用开始:请求的url是：，参数是：,拼接后的url地址是：
2021-07-08 16:52:03,085 - wrLog.py[line:31] - INFO: 接口调用开始:请求的url是：，参数是：,拼接后的url地址是：
2021-07-08 16:52:03,112 - wrLog.py[line:31] - INFO: 接口调用开始:请求的url是：，参数是：,拼接后的url地址是：
2021-07-08 16:52:03,139 - wrLog.py[line:31] - INFO: 接口调用开始:请求的url是：，参数是：,拼接后的url地址是：
2021-07-08 16:52:03,166 - wrLog.py[line:31] - INFO: 接口调用开始:请求的url是：，参数是：,拼接后的url地址是：
2021-07-08 16:52:03,192 - wrLog.py[line:31] - INFO: 接口调用开始:请求的url是：，参数是：,拼接后的url地址是：
2021-07-08 16:52:03,218 - wrLog.py[line:31] - INFO: 接口调用开始:请求的url是：，参数是：,拼接后的url地址是：
2021-07-08 16:52:03,246 - wrLog.py[line:31] - INFO: 接口调用开始:请求的url是：，参数是：,拼接后的url地址是：
2021-07-08 16:52:03,271 - wrLog.py[line:31] - INFO: 接口调用开始:请求的url是：，参数是：,拼接后的url地址是：
2021-07-08 16:52:03,308 - wrLog.py[line:31] - INFO: 接口调用开始:请求的url是：，参数是：,拼接后的url地址是：
2021-07-08 16:52:03,333 - wrLog.py[line:31] - INFO: 接口调用开始:请求的url是：，参数是：,拼接后的url地址是：
2021-07-08 16:52:03,359 - wrLog.py[line:31] - INFO: 接口调用开始:请求的url是：，参数是：,拼接后的url地址是：
2021-07-08 16:52:03,387 - wrLog.py[line:31] - INFO: 接口调用开始:请求的url是：，参数是：,拼接后的url地址是：
2021-07-08 16:52:03,413 - wrLog.py[line:31] - INFO: 接口调用开始:请求的url是：，参数是：,拼接后的url地址是：
2021-07-08 16:52:03,441 - wrLog.py[line:31] - INFO: 接口调用开始:请求的url是：，参数是：,拼接后的url地址是：
2021-07-08 16:52:03,466 - wrLog.py[line:31] - INFO: 接口调用开始:请求的url是：，参数是：,拼接后的url地址是：
2021-07-08 16:52:03,491 - wrLog.py[line:31] - INFO: 接口调用开始:请求的url是：，参数是：,拼接后的url地址是：
2021-07-08 16:52:03,529 - wrLog.py[line:31] - INFO: 接口调用开始:请求的url是：，参数是：,拼接后的url地址是：
2021-07-08 16:52:03,555 - wrLog.py[line:31] - INFO: 接口调用开始:请求的url是：，参数是：,拼接后的url地址是：
2021-07-08 16:52:03,582 - wrLog.py[line:31] - INFO: 接口调用开始:请求的url是：，参数是：,拼接后的url地址是：
2021-07-08 16:52:03,609 - wrLog.py[line:31] - INFO: 接口调用开始:请求的url是：，参数是：,拼接后的url地址是：
2021-07-08 16:52:03,635 - wrLog.py[line:31] - INFO: 接口调用开始:请求的url是：，参数是：,拼接后的url地址是：
2021-07-08 16:52:03,660 - wrLog.py[line:31] - INFO: 接口调用开始:请求的url是：，参数是：,拼接后的url地址是：
2021-07-08 16:52:03,688 - wrLog.py[line:31] - INFO: 接口调用开始:请求的url是：，参数是：,拼接后的url地址是：
2021-07-08 16:52:03,713 - wrLog.py[line:31] - INFO: 接口调用开始:请求的url是：，参数是：,拼接后的url地址是：
2021-07-08 16:52:03,750 - wrLog.py[line:31] - INFO: 接口调用开始:请求的url是：，参数是：,拼接后的url地址是：
2021-07-08 16:52:03,778 - wrLog.py[line:31] - INFO: 接口调用开始:请求的url是：，参数是：,拼接后的url地址是：
2021-07-08 16:52:03,806 - wrLog.py[line:31] - INFO: 接口调用开始:请求的url是：，参数是：,拼接后的url地址是：
2021-07-08 16:52:03,832 - wrLog.py[line:31] - INFO: 接口调用开始:请求的url是：，参数是：,拼接后的url地址是：
2021-07-08 16:52:03,858 - wrLog.py[line:31] - INFO: 接口调用开始:请求的url是：，参数是：,拼接后的url地址是：
2021-07-08 16:52:03,884 - wrLog.py[line:31] - INFO: 接口调用开始:请求的url是：，参数是：,拼接后的url地址是：
2021-07-08 16:52:03,909 - wrLog.py[line:31] - INFO: 接口调用开始:请求的url是：，参数是：,拼接后的url地址是：
2021-07-08 16:52:03,934 - wrLog.py[line:31] - INFO: 接口调用开始:请求的url是：，参数是：,拼接后的url地址是：
2021-07-08 16:52:03,960 - wrLog.py[line:31] - INFO: 接口调用开始:请求的url是：，参数是：,拼接后的url地址是：
2021-07-08 16:52:03,999 - wrLog.py[line:31] - INFO: 接口调用开始:请求的url是：，参数是：,拼接后的url地址是：
2021-07-08 16:52:04,026 - wrLog.py[line:31] - INFO: 接口调用开始:请求的url是：，参数是：,拼接后的url地址是：
2021-07-08 16:52:04,053 - wrLog.py[line:31] - INFO: 接口调用开始:请求的url是：，参数是：,拼接后的url地址是：
2021-07-08 16:52:04,079 - wrLog.py[line:31] - INFO: 接口调用开始:请求的url是：，参数是：,拼接后的url地址是：
2021-07-08 16:52:04,107 - wrLog.py[line:31] - INFO: 接口调用开始:请求的url是：，参数是：,拼接后的url地址是：
2021-07-08 16:52:04,132 - wrLog.py[line:31] - INFO: 接口调用开始:请求的url是：，参数是：,拼接后的url地址是：
2021-07-08 16:52:04,157 - wrLog.py[line:31] - INFO: 接口调用开始:请求的url是：，参数是：,拼接后的url地址是：
2021-07-08 16:52:04,183 - wrLog.py[line:31] - INFO: 接口调用开始:请求的url是：，参数是：,拼接后的url地址是：
2021-07-08 16:52:04,221 - wrLog.py[line:31] - INFO: 接口调用开始:请求的url是：，参数是：,拼接后的url地址是：
2021-07-08 16:52:04,247 - wrLog.py[line:31] - INFO: 接口调用开始:请求的url是：，参数是：,拼接后的url地址是：
2021-07-08 16:52:04,273 - wrLog.py[line:31] - INFO: 接口调用开始:请求的url是：，参数是：,拼接后的url地址是：
2021-07-08 16:52:04,299 - wrLog.py[line:31] - INFO: 接口调用开始:请求的url是：，参数是：,拼接后的url地址是：
2021-07-08 16:52:04,324 - wrLog.py[line:31] - INFO: 接口调用开始:请求的url是：，参数是：,拼接后的url地址是：
2021-07-08 16:52:04,351 - wrLog.py[line:31] - INFO: 接口调用开始:请求的url是：，参数是：,拼接后的url地址是：
2021-07-08 16:52:04,376 - wrLog.py[line:31] - INFO: 接口调用开始:请求的url是：，参数是：,拼接后的url地址是：
2021-07-08 16:52:04,400 - wrLog.py[line:31] - INFO: 接口调用开始:请求的url是：，参数是：,拼接后的url地址是：
2021-07-08 16:52:04,441 - wrLog.py[line:31] - INFO: 接口调用开始:请求的url是：，参数是：,拼接后的url地址是：
2021-07-08 16:52:04,470 - wrLog.py[line:31] - INFO: 接口调用开始:请求的url是：，参数是：,拼接后的url地址是：
2021-07-08 16:52:04,496 - wrLog.py[line:31] - INFO: 接口调用开始:请求的url是：，参数是：,拼接后的url地址是：
2021-07-08 16:52:04,523 - wrLog.py[line:31] - INFO: 接口调用开始:请求的url是：，参数是：,拼接后的url地址是：
2021-07-08 16:52:04,549 - wrLog.py[line:31] - INFO: 接口调用开始:请求的url是：，参数是：,拼接后的url地址是：
2021-07-08 16:52:04,575 - wrLog.py[line:31] - INFO: 接口调用开始:请求的url是：，参数是：,拼接后的url地址是：
2021-07-08 16:52:04,601 - wrLog.py[line:31] - INFO: 接口调用开始:请求的url是：，参数是：,拼接后的url地址是：
2021-07-08 16:52:04,628 - wrLog.py[line:31] - INFO: 接口调用开始:请求的url是：，参数是：,拼接后的url地址是：
2021-07-08 16:52:04,656 - wrLog.py[line:31] - INFO: 接口调用开始:请求的url是：，参数是：,拼接后的url地址是：
2021-07-08 16:52:04,701 - wrLog.py[line:31] - INFO: 接口调用开始:请求的url是：，参数是：,拼接后的url地址是：
2021-07-08 16:52:04,727 - wrLog.py[line:31] - INFO: 接口调用开始:请求的url是：，参数是：,拼接后的url地址是：
2021-07-08 16:52:04,757 - wrLog.py[line:31] - INFO: 接口调用开始:请求的url是：，参数是：,拼接后的url地址是：
2021-07-08 16:52:04,784 - wrLog.py[line:31] - INFO: 接口调用开始:请求的url是：，参数是：,拼接后的url地址是：
2021-07-08 16:52:04,811 - wrLog.py[line:31] - INFO: 接口调用开始:请求的url是：，参数是：,拼接后的url地址是：
2021-07-08 16:52:04,837 - wrLog.py[line:31] - INFO: 接口调用开始:请求的url是：，参数是：,拼接后的url地址是：
2021-07-08 16:52:04,863 - wrLog.py[line:31] - INFO: 接口调用开始:请求的url是：，参数是：,拼接后的url地址是：
2021-07-08 16:52:04,889 - wrLog.py[line:31] - INFO: 接口调用开始:请求的url是：，参数是：,拼接后的url地址是：
2021-07-08 16:52:04,928 - wrLog.py[line:31] - INFO: 接口调用开始:请求的url是：，参数是：,拼接后的url地址是：
2021-07-08 16:52:04,955 - wrLog.py[line:31] - INFO: 接口调用开始:请求的url是：，参数是：,拼接后的url地址是：
2021-07-08 16:52:04,980 - wrLog.py[line:31] - INFO: 接口调用开始:请求的url是：，参数是：,拼接后的url地址是：
2021-07-08 16:52:05,006 - wrLog.py[line:31] - INFO: 接口调用开始:请求的url是：，参数是：,拼接后的url地址是：
2021-07-08 16:52:05,032 - wrLog.py[line:31] - INFO: 接口调用开始:请求的url是：，参数是：,拼接后的url地址是：
2021-07-08 16:52:05,058 - wrLog.py[line:31] - INFO: 接口调用开始:请求的url是：，参数是：,拼接后的url地址是：
2021-07-08 16:52:05,084 - wrLog.py[line:31] - INFO: 接口调用开始:请求的url是：，参数是：,拼接后的url地址是：
2021-07-08 16:52:05,109 - wrLog.py[line:31] - INFO: 接口调用开始:请求的url是：，参数是：,拼接后的url地址是：
2021-07-08 16:52:05,151 - wrLog.py[line:31] - INFO: 接口调用开始:请求的url是：，参数是：,拼接后的url地址是：
2021-07-08 16:52:05,177 - wrLog.py[line:31] - INFO: 接口调用开始:请求的url是：，参数是：,拼接后的url地址是：
2021-07-08 16:52:05,203 - wrLog.py[line:31] - INFO: 接口调用开始:请求的url是：，参数是：,拼接后的url地址是：
2021-07-08 16:52:05,227 - wrLog.py[line:31] - INFO: 接口调用开始:请求的url是：，参数是：,拼接后的url地址是：
2021-07-08 16:52:05,252 - wrLog.py[line:31] - INFO: 接口调用开始:请求的url是：，参数是：,拼接后的url地址是：
2021-07-08 16:52:05,278 - wrLog.py[line:31] - INFO: 接口调用开始:请求的url是：，参数是：,拼接后的url地址是：
2021-07-08 16:52:05,307 - wrLog.py[line:31] - INFO: 接口调用开始:请求的url是：，参数是：,拼接后的url地址是：
2021-07-08 16:52:05,334 - wrLog.py[line:31] - INFO: 接口调用开始:请求的url是：，参数是：,拼接后的url地址是：
2021-07-08 16:52:05,362 - wrLog.py[line:31] - INFO: 接口调用开始:请求的url是：，参数是：,拼接后的url地址是：
2021-07-08 16:52:05,405 - wrLog.py[line:31] - INFO: 接口调用开始:请求的url是：，参数是：,拼接后的url地址是：
2021-07-08 16:52:05,432 - wrLog.py[line:31] - INFO: 接口调用开始:请求的url是：，参数是：,拼接后的url地址是：
2021-07-08 16:52:05,459 - wrLog.py[line:31] - INFO: 接口调用开始:请求的url是：，参数是：,拼接后的url地址是：
2021-07-08 16:52:05,487 - wrLog.py[line:31] - INFO: 接口调用开始:请求的url是：，参数是：,拼接后的url地址是：
2021-07-08 16:52:05,514 - wrLog.py[line:31] - INFO: 接口调用开始:请求的url是：，参数是：,拼接后的url地址是：
2021-07-08 16:52:05,541 - wrLog.py[line:31] - INFO: 接口调用开始:请求的url是：，参数是：,拼接后的url地址是：
2021-07-08 16:52:05,569 - wrLog.py[line:31] - INFO: 接口调用开始:请求的url是：，参数是：,拼接后的url地址是：
2021-07-08 16:52:05,596 - wrLog.py[line:31] - INFO: 接口调用开始:请求的url是：，参数是：,拼接后的url地址是：
2021-07-08 16:52:05,638 - wrLog.py[line:31] - INFO: 接口调用开始:请求的url是：，参数是：,拼接后的url地址是：
2021-07-08 16:52:05,662 - wrLog.py[line:31] - INFO: 接口调用开始:请求的url是：，参数是：,拼接后的url地址是：
2021-07-08 16:52:05,686 - wrLog.py[line:31] - INFO: 接口调用开始:请求的url是：，参数是：,拼接后的url地址是：
2021-07-08 16:52:05,711 - wrLog.py[line:31] - INFO: 接口调用开始:请求的url是：，参数是：,拼接后的url地址是：
2021-07-08 16:52:05,737 - wrLog.py[line:31] - INFO: 接口调用开始:请求的url是：，参数是：,拼接后的url地址是：
2021-07-08 16:52:05,764 - wrLog.py[line:31] - INFO: 接口调用开始:请求的url是：，参数是：,拼接后的url地址是：
2021-07-08 16:52:05,790 - wrLog.py[line:31] - INFO: 接口调用开始:请求的url是：，参数是：,拼接后的url地址是：
2021-07-08 16:52:05,819 - wrLog.py[line:31] - INFO: 接口调用开始:请求的url是：，参数是：,拼接后的url地址是：
2021-07-08 16:52:05,862 - wrLog.py[line:31] - INFO: 接口调用开始:请求的url是：，参数是：,拼接后的url地址是：
2021-07-08 16:52:05,889 - wrLog.py[line:31] - INFO: 接口调用开始:请求的url是：，参数是：,拼接后的url地址是：
2021-07-08 16:52:05,917 - wrLog.py[line:31] - INFO: 接口调用开始:请求的url是：，参数是：,拼接后的url地址是：
2021-07-08 16:52:05,944 - wrLog.py[line:31] - INFO: 接口调用开始:请求的url是：，参数是：,拼接后的url地址是：
2021-07-08 16:52:05,970 - wrLog.py[line:31] - INFO: 接口调用开始:请求的url是：，参数是：,拼接后的url地址是：
2021-07-08 16:52:05,999 - wrLog.py[line:31] - INFO: 接口调用开始:请求的url是：，参数是：,拼接后的url地址是：
2021-07-08 16:52:06,026 - wrLog.py[line:31] - INFO: 接口调用开始:请求的url是：，参数是：,拼接后的url地址是：
2021-07-08 16:52:06,054 - wrLog.py[line:31] - INFO: 接口调用开始:请求的url是：，参数是：,拼接后的url地址是：
2021-07-08 16:52:06,080 - wrLog.py[line:31] - INFO: 接口调用开始:请求的url是：，参数是：,拼接后的url地址是：
2021-07-08 16:52:06,123 - wrLog.py[line:31] - INFO: 接口调用开始:请求的url是：，参数是：,拼接后的url地址是：
2021-07-08 16:52:06,150 - wrLog.py[line:31] - INFO: 接口调用开始:请求的url是：，参数是：,拼接后的url地址是：
2021-07-08 16:52:06,177 - wrLog.py[line:31] - INFO: 接口调用开始:请求的url是：，参数是：,拼接后的url地址是：
2021-07-08 16:52:06,205 - wrLog.py[line:31] - INFO: 接口调用开始:请求的url是：，参数是：,拼接后的url地址是：
2021-07-08 16:52:06,231 - wrLog.py[line:31] - INFO: 接口调用开始:请求的url是：，参数是：,拼接后的url地址是：
2021-07-08 16:52:06,258 - wrLog.py[line:31] - INFO: 接口调用开始:请求的url是：，参数是：,拼接后的url地址是：
2021-07-08 16:52:06,285 - wrLog.py[line:31] - INFO: 接口调用开始:请求的url是：，参数是：,拼接后的url地址是：
2021-07-08 16:52:06,311 - wrLog.py[line:31] - INFO: 接口调用开始:请求的url是：，参数是：,拼接后的url地址是：
2021-07-08 16:52:06,353 - wrLog.py[line:31] - INFO: 接口调用开始:请求的url是：，参数是：,拼接后的url地址是：
2021-07-08 16:52:06,381 - wrLog.py[line:31] - INFO: 接口调用开始:请求的url是：，参数是：,拼接后的url地址是：
2021-07-08 16:52:06,410 - wrLog.py[line:31] - INFO: 接口调用开始:请求的url是：，参数是：,拼接后的url地址是：
2021-07-08 16:52:06,438 - wrLog.py[line:31] - INFO: 接口调用开始:请求的url是：，参数是：,拼接后的url地址是：
2021-07-08 16:52:06,466 - wrLog.py[line:31] - INFO: 接口调用开始:请求的url是：，参数是：,拼接后的url地址是：
2021-07-08 16:52:06,493 - wrLog.py[line:31] - INFO: 接口调用开始:请求的url是：，参数是：,拼接后的url地址是：
2021-07-08 16:52:06,521 - wrLog.py[line:31] - INFO: 接口调用开始:请求的url是：，参数是：,拼接后的url地址是：
2021-07-08 16:52:06,547 - wrLog.py[line:31] - INFO: 接口调用开始:请求的url是：，参数是：,拼接后的url地址是：
2021-07-08 16:52:06,585 - wrLog.py[line:31] - INFO: 接口调用开始:请求的url是：，参数是：,拼接后的url地址是：
2021-07-08 16:52:06,610 - wrLog.py[line:31] - INFO: 接口调用开始:请求的url是：，参数是：,拼接后的url地址是：
2021-07-08 16:52:06,636 - wrLog.py[line:31] - INFO: 接口调用开始:请求的url是：，参数是：,拼接后的url地址是：
2021-07-08 16:52:06,662 - wrLog.py[line:31] - INFO: 接口调用开始:请求的url是：，参数是：,拼接后的url地址是：
2021-07-08 16:52:06,687 - wrLog.py[line:31] - INFO: 接口调用开始:请求的url是：，参数是：,拼接后的url地址是：
2021-07-08 16:56:24,486 - wrLog.py[line:31] - INFO: 接口调用开始:请求的url是：https://reqres.in/api/users?，参数是：page=1,拼接后的url地址是：https://reqres.in/api/users?page=1
2021-07-08 16:56:24,925 - wrLog.py[line:31] - INFO: 接口实际返回结果：{"page":1,"per_page":6,"total":12,"total_pages":2,"data":[{"id":1,"email":"george.bluth@reqres.in","first_name":"George","last_name":"Bluth","avatar":"https://reqres.in/img/faces/1-image.jpg"},{"id":2,"email":"janet.weaver@reqres.in","first_name":"Janet","last_name":"Weaver","avatar":"https://reqres.in/img/faces/2-image.jpg"},{"id":3,"email":"emma.wong@reqres.in","first_name":"Emma","last_name":"Wong","avatar":"https://reqres.in/img/faces/3-image.jpg"},{"id":4,"email":"eve.holt@reqres.in","first_name":"Eve","last_name":"Holt","avatar":"https://reqres.in/img/faces/4-image.jpg"},{"id":5,"email":"charles.morris@reqres.in","first_name":"Charles","last_name":"Morris","avatar":"https://reqres.in/img/faces/5-image.jpg"},{"id":6,"email":"tracey.ramos@reqres.in","first_name":"Tracey","last_name":"Ramos","avatar":"https://reqres.in/img/faces/6-image.jpg"}],"support":{"url":"https://reqres.in/#support-heading","text":"To keep ReqRes free, contributions towards server costs are appreciated!"}}
2021-07-08 16:56:24,926 - wrLog.py[line:31] - INFO: 接口的预期结果：{"page":1,"per_page":6,"total":12,"total_pages":2,"data":[{"id":1,"email":"george.bluth@reqres.in","first_name":"George","last_name":"Bluth","avatar":"https://reqres.in/img/faces/1-image.jpg"},{"id":2,"email":"janet.weaver@reqres.in","first_name":"Janet","last_name":"Weaver","avatar":"https://reqres.in/img/faces/2-image.jpg"},{"id":3,"email":"emma.wong@reqres.in","first_name":"Emma","last_name":"Wong","avatar":"https://reqres.in/img/faces/3-image.jpg"},{"id":4,"email":"eve.holt@reqres.in","first_name":"Eve","last_name":"Holt","avatar":"https://reqres.in/img/faces/4-image.jpg"},{"id":5,"email":"charles.morris@reqres.in","first_name":"Charles","last_name":"Morris","avatar":"https://reqres.in/img/faces/5-image.jpg"},{"id":6,"email":"tracey.ramos@reqres.in","first_name":"Tracey","last_name":"Ramos","avatar":"https://reqres.in/img/faces/6-image.jpg"}],"support":{"url":"https://reqres.in/#support-heading","text":"To keep ReqRes free, contributions towards server costs are appreciated!"}}
2021-07-08 16:56:24,927 - wrLog.py[line:31] - INFO: 实际返回结果和预期结果校验为：True
2021-07-08 16:56:24,954 - wrLog.py[line:31] - INFO: 接口调用开始:请求的url是：https://reqres.in/api/users?，参数是：page=2,拼接后的url地址是：https://reqres.in/api/users?page=2
2021-07-08 16:56:25,398 - wrLog.py[line:31] - INFO: 接口实际返回结果：{"page":2,"per_page":6,"total":12,"total_pages":2,"data":[{"id":7,"email":"michael.lawson@reqres.in","first_name":"Michael","last_name":"Lawson","avatar":"https://reqres.in/img/faces/7-image.jpg"},{"id":8,"email":"lindsay.ferguson@reqres.in","first_name":"Lindsay","last_name":"Ferguson","avatar":"https://reqres.in/img/faces/8-image.jpg"},{"id":9,"email":"tobias.funke@reqres.in","first_name":"Tobias","last_name":"Funke","avatar":"https://reqres.in/img/faces/9-image.jpg"},{"id":10,"email":"byron.fields@reqres.in","first_name":"Byron","last_name":"Fields","avatar":"https://reqres.in/img/faces/10-image.jpg"},{"id":11,"email":"george.edwards@reqres.in","first_name":"George","last_name":"Edwards","avatar":"https://reqres.in/img/faces/11-image.jpg"},{"id":12,"email":"rachel.howell@reqres.in","first_name":"Rachel","last_name":"Howell","avatar":"https://reqres.in/img/faces/12-image.jpg"}],"support":{"url":"https://reqres.in/#support-heading","text":"To keep ReqRes free, contributions towards server costs are appreciated!"}}
2021-07-08 16:56:25,399 - wrLog.py[line:31] - INFO: 接口的预期结果：{"page":2,"per_page":6,"total":12,"total_pages":2,"data":[{"id":7,"email":"michael.lawson@reqres.in","first_name":"Michael","last_name":"Lawson","avatar":"https://reqres.in/img/faces/7-image.jpg"},{"id":8,"email":"lindsay.ferguson@reqres.in","first_name":"Lindsay","last_name":"Ferguson","avatar":"https://reqres.in/img/faces/8-image.jpg"},{"id":9,"email":"tobias.funke@reqres.in","first_name":"Tobias","last_name":"Funke","avatar":"https://reqres.in/img/faces/9-image.jpg"},{"id":10,"email":"byron.fields@reqres.in","first_name":"Byron","last_name":"Fields","avatar":"https://reqres.in/img/faces/10-image.jpg"},{"id":11,"email":"george.edwards@reqres.in","first_name":"George","last_name":"Edwards","avatar":"https://reqres.in/img/faces/11-image.jpg"},{"id":12,"email":"rachel.howell@reqres.in","first_name":"Rachel","last_name":"Howell","avatar":"https://reqres.in/img/faces/12-image.jpg"}],"support":{"url":"https://reqres.in/#support-heading","text":"To keep ReqRes free, contributions towards server costs are appreciated!"}}
2021-07-08 16:56:25,400 - wrLog.py[line:31] - INFO: 实际返回结果和预期结果校验为：True
